Iterative Bayesian optimization of a classification model
…
The resulting tibble is a stacked set of rows of the rsample object with an additional column for the iteration number:

search_res
#> #  10-fold cross-validation 
#> # A tibble: 510 x 5
#>    splits             id     .metrics         .notes           .iter
#>  * <list>             <chr>  <list>           <list>           <dbl>
#>  1 <split [1.4K/152]> Fold01 <tibble [5 × 6]> <tibble [0 × 1]>     0
#>  2 <split [1.4K/152]> Fold02 <tibble [5 × 6]> <tibble [0 × 1]>     0
#>  3 <split [1.4K/152]> Fold03 <tibble [5 × 6]> <tibble [0 × 1]>     0
#>  4 <split [1.4K/152]> Fold04 <tibble [5 × 6]> <tibble [0 × 1]>     0
#>  5 <split [1.4K/152]> Fold05 <tibble [5 × 6]> <tibble [0 × 1]>     0
#>  6 <split [1.4K/151]> Fold06 <tibble [5 × 6]> <tibble [0 × 1]>     0
#>  7 <split [1.4K/151]> Fold07 <tibble [5 × 6]> <tibble [0 × 1]>     0
#>  8 <split [1.4K/151]> Fold08 <tibble [5 × 6]> <tibble [0 × 1]>     0
#>  9 <split [1.4K/151]> Fold09 <tibble [5 × 6]> <tibble [0 × 1]>     0
#> 10 <split [1.4K/151]> Fold10 <tibble [5 × 6]> <tibble [0 × 1]>     0
#> # … with 500 more rows

As with grid search, we can summarize the results over resamples:

estimates <- 
  collect_metrics(search_res) %>% 
  arrange(.iter)

estimates
#> # A tibble: 55 x 9
#>        cost rbf_sigma num_comp .iter .metric .estimator  mean     n std_err
#>       <dbl>     <dbl>    <int> <dbl> <chr>   <chr>      <dbl> <int>   <dbl>
#>  1  0.00207  1.56e- 5       10     0 roc_auc binary     0.864    10 0.00888
#>  2  0.0304   6.41e- 9        5     0 roc_auc binary     0.859    10 0.00922
#>  3  0.348    4.43e- 2        1     0 roc_auc binary     0.757    10 0.0177 
#>  4  1.45     2.04e- 3       15     0 roc_auc binary     0.865    10 0.00962
#>  5 15.5      1.28e- 7       20     0 roc_auc binary     0.865    10 0.00848
#>  6  0.580    1.54e- 9       12     1 roc_auc binary     0.862    10 0.00897
#>  7  0.0251   6.36e- 6       16     2 roc_auc binary     0.861    10 0.00908
#>  8 23.0      1.02e-10        7     3 roc_auc binary     0.863    10 0.00923
#>  9  0.0894   1.09e-10        0     4 roc_auc binary     0.849    10 0.0116 
#> 10  0.402    4.13e- 1       20     5 roc_auc binary     0.824    10 0.00885
#> # … with 45 more rows
…
