Evaluate your model with resampling
…
library(tidymodels) # for the rsample package, along with the rest of tidymodels

# Helper packages
library(modeldata)  # for the cells data

The cell image data

Let’s use data from 
Hill, LaPan, Li, and Haney (2007), available in the 
modeldata package, to predict cell image segmentation quality with resampling. To start, we load this data into R:

data(cells, package = "modeldata")
cells
#> # A tibble: 2,019 x 58
#>   case  class angle_ch_1 area_ch_1 avg_inten_ch_1 avg_inten_ch_2 avg_inten_ch_3
#>   <fct> <fct>      <dbl>     <int>          <dbl>          <dbl>          <dbl>
#> 1 Test  PS        143.         185           15.7           4.95           9.55
#> 2 Train PS        134.         819           31.9         207.            69.9 
#> 3 Train WS        107.         431           28.0         116.            63.9 
#> 4 Train PS         69.2        298           19.5         102.            28.2 
#> 5 Test  PS          2.89       285           24.3         112.            20.5 
#> # … with 2,014 more rows, and 51 more variables: avg_inten_ch_4 <dbl>,
#> #   convex_hull_area_ratio_ch_1 <dbl>, convex_hull_perim_ratio_ch_1 <dbl>,
#> #   diff_inten_density_ch_1 <dbl>, diff_inten_density_ch_3 <dbl>, …
…
Using these colors, the cells in an image can be segmented so that we know which pixels belong to which cell. If this is done well, the cell can be measured in different ways that are important to the biology. Sometimes the shape of the cell matters and different mathematical tools are used to summarize characteristics like the size or “oblongness” of the cell.

The bottom panel shows some segmentation results. Cells 1 and 5 are fairly well segmented. However, cells 2 to 4 are bunched up together because the segmentation was not very good. The consequence of bad segmentation is data contamination; when the biologist analyzes the shape or size of these cells, the data are inaccurate and could lead to the wrong conclusion.

A cell-based experiment might involve millions of cells so it is unfeasible to visually assess them all. Instead, a subsample can be created and these cells can be manually labeled by experts as either poorly segmented (PS) or well-segmented (WS). If we can predict these labels accurately, the larger data set can be improved by filtering out the cells most likely to be poorly segmented.

Back to the cells data

The cells data has class labels for 2019 cells — each cell is labeled as either poorly segmented (PS) or well-segmented (WS). Each also has a total of 56 predictors based on automated image analysis measurements. For example, avg_inten_ch_1 is the mean intensity of the data contained in the nucleus, area_ch_1 is the total size of the cell, and so on (some predictors are fairly arcane in nature).

cells
#> # A tibble: 2,019 x 58
#>   case  class angle_ch_1 area_ch_1 avg_inten_ch_1 avg_inten_ch_2 avg_inten_ch_3
#>   <fct> <fct>      <dbl>     <int>          <dbl>          <dbl>          <dbl>
#> 1 Test  PS        143.         185           15.7           4.95           9.55
#> 2 Train PS        134.         819           31.9         207.            69.9 
#> 3 Train WS        107.         431           28.0         116.            63.9 
#> 4 Train PS         69.2        298           19.5         102.            28.2 
#> 5 Test  PS          2.89       285           24.3         112.            20.5 
#> # … with 2,014 more rows, and 51 more variables: avg_inten_ch_4 <dbl>,
#> #   convex_hull_area_ratio_ch_1 <dbl>, convex_hull_perim_ratio_ch_1 <dbl>,
#> #   diff_inten_density_ch_1 <dbl>, diff_inten_density_ch_3 <dbl>, …
…
